…
{% highlight r %}
library(tidyverse)
library(cowplot)
library(XML)

# read and extract HTML table
remap <- readHTMLTable("http://tagc.univ-mrs.fr/remap/index.php?page=ct")[[1]] %>%
  as_tibble(.name_repair = "universal")
remap
{% endhighlight %}



{% highlight text %}
## # A tibble: 346 x 6
##    Cell.Type Number.of.Publi~ Number.of.Encod~ Name  BTO.ID
##    <fct>     <fct>            <fct>            <fct> <fct> 
##  1 MCF7      190              71               MCF-~ BTO:0~
##  2 LNCAP     123              2                LNCa~ BTO:0~
##  3 VCAP      81               0                VCaP~ BTO:0~
##  4 ESC       69               76               embr~ BTO:0~
##  5 HELA      48               72               HeLa~ BTO:0~
##  6 T47D      48               9                T-47~ BTO:0~
##  7 U2OS      41               2                U2-O~ BTO:0~
##  8 HCT166    33               23               HCT-~ BTO:0~
##  9 HUVEC     33               0                HUVE~ BTO:0~
## 10 MM1S      33               0                MM1-~ BTO:0~
## # ... with 336 more rows, and 1 more variable: Transcription.Factor <fct>
…
# count TFs per cell type
remap_counts <- remap_sep %>% group_by(Cell.Type) %>%
  summarize(count = n()) %>%
  arrange(desc(count))
remap_counts
{% endhighlight %}



{% highlight text %}
## # A tibble: 346 x 2
##    Cell.Type count
##    <fct>     <int>
##  1 K562        179
##  2 GM12878     110
##  3 HEPG2       103
##  4 ESC          88
##  5 HELA         85
##  6 MCF7         84
##  7 A549         50
##  8 HCT166       33
##  9 SKNSH        28
## 10 LNCAP        25
## # ... with 336 more rows
…
