…
## 11 thyroid gland tissue female adult (51 year) 
## 12 thyroid gland tissue female adult (53 years)
## 13 papillary thyroid cancer invasive region    
## 14 papillary thyroid cancer central region     
## 15 papillary thyroid                           
## 
## [[2]]
## # A tibble: 2 x 1
##   molecule 
##   <chr>    
## 1 polyA RNA
## 2 total RNA
## 
## [[3]]
## # A tibble: 75 x 1
##    characteristics                                                         
##    <chr>                                                                   
##  1 library type: single-endXx-xXread length: 50                            
##  2 patient: 2Xx-xXtissue: Parathyroid tumorXx-xXagent: OHTXx-xXtime: 24h   
##  3 patient: 2Xx-xXtissue: Parathyroid tumorXx-xXagent: DPNXx-xXtime: 24h   
##  4 disease state: TumorXx-xXtissue: thyroid                                
##  5 patient: 2Xx-xXtissue: Parathyroid tumorXx-xXagent: OHTXx-xXtime: 48h   
##  6 disease state: NormalXx-xXtissue: thyroid                               
##  7 patient: 1Xx-xXtissue: Parathyroid tumorXx-xXagent: DPNXx-xXtime: 48h   
##  8 patient: 3Xx-xXtissue: Parathyroid tumorXx-xXagent: DPNXx-xXtime: 48h   
##  9 patient: 1Xx-xXtissue: Parathyroid tumorXx-xXagent: ControlXx-xXtime: 2…
## 10 patient: 2Xx-xXtissue: Parathyroid tumorXx-xXagent: ControlXx-xXtime: 4…
## # … with 65 more rows
## 
## [[4]]
…
