…
{% highlight text %}
## # A tibble: 3,338 x 21
##    GameID LeagueIndex   Age HoursPerWeek TotalHours   APM SelectByHotkeys
##     <dbl> <ord>       <dbl>        <dbl>      <dbl> <dbl>           <dbl>
##  1   5140 Diamond        18           24    1000000 281.         0.0234  
##  2   6518 Master         20            8      25000 247.         0.0158  
##  3   2246 Diamond        22           16      20000 248.         0.0237  
##  4   5610 Platinum       22           10      18000 152.         0.0120  
##  5   6242 Gold           24           20      10260  76.6        0.000780
##  6     72 GrandMaster    17           42      10000 213.         0.00904 
##  7   6020 Diamond        22           10       9000 106.         0.00357 
##  8     83 Gold           16           16       6000 154.         0.00168 
##  9   9055 Gold           19           20       6000 102.         0.00205 
## 10     55 Diamond        23           10       5000 129.         0.00330 
## # … with 3,328 more rows, and 14 more variables: AssignToHotkeys <dbl>,
## #   UniqueHotkeys <dbl>, MinimapAttacks <dbl>, MinimapRightClicks <dbl>,
## #   NumberOfPACs <dbl>, GapBetweenPACs <dbl>, ActionLatency <dbl>,
## #   ActionsInPAC <dbl>, TotalMapExplored <dbl>, WorkersMade <dbl>,
## #   UniqueUnitsMade <dbl>, ComplexUnitsMade <dbl>,
## #   ComplexAbilitiesUsed <dbl>, TotalHoursLog <dbl>
…
